Date : 2021-04-07 14:37:05
Directory : /Users/gregd/Desktop/Gregs Workspace/Work/TravelSoft/BusPassenger2021/BusPassenger1stApril/src/app
Total : 122 files,  4736 codes, 69 comments, 915 blanks, all 5720 lines

Languages
+------------+------------+------------+------------+------------+------------+
| language   | files      | code       | comment    | blank      | total      |
+------------+------------+------------+------------+------------+------------+
| TypeScript |         82 |      2,343 |         27 |        641 |      3,011 |
| SCSS       |         20 |      1,314 |          0 |         78 |      1,392 |
| HTML       |         20 |      1,079 |         42 |        196 |      1,317 |
+------------+------------+------------+------------+------------+------------+

Directories
+----------------------------------------------------------------------------------------------------------------------------------------------------------------------+------------+------------+------------+------------+------------+
| path                                                                                                                                                                 | files      | code       | comment    | blank      | total      |
+----------------------------------------------------------------------------------------------------------------------------------------------------------------------+------------+------------+------------+------------+------------+
| .                                                                                                                                                                    |        122 |      4,736 |         69 |        915 |      5,720 |
| checkout                                                                                                                                                             |          6 |        259 |         12 |         78 |        349 |
| checkout-extras-payment                                                                                                                                              |          6 |        559 |         19 |        128 |        706 |
| checkout-summary                                                                                                                                                     |          6 |        314 |          0 |         41 |        355 |
| forgot-password                                                                                                                                                      |          6 |         67 |          0 |         24 |         91 |
| home                                                                                                                                                                 |          6 |        466 |          1 |         64 |        531 |
| language                                                                                                                                                             |          6 |        209 |          0 |         28 |        237 |
| language-popover                                                                                                                                                     |          6 |         79 |          0 |         21 |        100 |
| livechat                                                                                                                                                             |          6 |         67 |          0 |         24 |         91 |
| login                                                                                                                                                                |          6 |        191 |          0 |         59 |        250 |
| main                                                                                                                                                                 |          6 |        145 |          0 |         29 |        174 |
| profile                                                                                                                                                              |          6 |        214 |          0 |         41 |        255 |
| register                                                                                                                                                             |          6 |        167 |          0 |         37 |        204 |
| routes                                                                                                                                                               |          6 |        263 |          0 |         64 |        327 |
| service                                                                                                                                                              |          2 |         45 |          0 |         13 |         58 |
| services                                                                                                                                                             |          6 |        168 |          0 |         26 |        194 |
| settings                                                                                                                                                             |          6 |        248 |          0 |         27 |        275 |
| test                                                                                                                                                                 |          6 |        259 |         36 |         76 |        371 |
| tickets                                                                                                                                                              |          6 |        260 |          0 |         30 |        290 |
| tickets-mytickets                                                                                                                                                    |          6 |        267 |          0 |         36 |        303 |
| tickets-search                                                                                                                                                       |          6 |        317 |          0 |         47 |        364 |
+----------------------------------------------------------------------------------------------------------------------------------------------------------------------+------------+------------+------------+------------+------------+

Files
+----------------------------------------------------------------------------------------------------------------------------------------------------------------------+------------+------------+------------+------------+------------+
| filename                                                                                                                                                             | language   | code       | comment    | blank      | total      |
+----------------------------------------------------------------------------------------------------------------------------------------------------------------------+------------+------------+------------+------------+------------+
| /Users/gregd/Desktop/Gregs Workspace/Work/TravelSoft/BusPassenger2021/BusPassenger1stApril/src/app/app-routing.module.ts                                             | TypeScript |         92 |          0 |          3 |         95 |
| /Users/gregd/Desktop/Gregs Workspace/Work/TravelSoft/BusPassenger2021/BusPassenger1stApril/src/app/app.component.html                                                | HTML       |          3 |          0 |          1 |          4 |
| /Users/gregd/Desktop/Gregs Workspace/Work/TravelSoft/BusPassenger2021/BusPassenger1stApril/src/app/app.component.scss                                                | SCSS       |          0 |          0 |          1 |          1 |
| /Users/gregd/Desktop/Gregs Workspace/Work/TravelSoft/BusPassenger2021/BusPassenger1stApril/src/app/app.component.spec.ts                                             | TypeScript |         16 |          1 |          7 |         24 |
| /Users/gregd/Desktop/Gregs Workspace/Work/TravelSoft/BusPassenger2021/BusPassenger1stApril/src/app/app.component.ts                                                  | TypeScript |         19 |          0 |          4 |         23 |
| /Users/gregd/Desktop/Gregs Workspace/Work/TravelSoft/BusPassenger2021/BusPassenger1stApril/src/app/app.module.ts                                                     | TypeScript |         42 |          0 |          6 |         48 |
| /Users/gregd/Desktop/Gregs Workspace/Work/TravelSoft/BusPassenger2021/BusPassenger1stApril/src/app/checkout-extras-payment/checkout-extras-payment-routing.module.ts | TypeScript |         14 |          0 |          4 |         18 |
| /Users/gregd/Desktop/Gregs Workspace/Work/TravelSoft/BusPassenger2021/BusPassenger1stApril/src/app/checkout-extras-payment/checkout-extras-payment.module.ts         | TypeScript |         18 |          0 |          5 |         23 |
| /Users/gregd/Desktop/Gregs Workspace/Work/TravelSoft/BusPassenger2021/BusPassenger1stApril/src/app/checkout-extras-payment/checkout-extras-payment.page.html         | HTML       |        112 |         13 |         25 |        150 |
| /Users/gregd/Desktop/Gregs Workspace/Work/TravelSoft/BusPassenger2021/BusPassenger1stApril/src/app/checkout-extras-payment/checkout-extras-payment.page.scss         | SCSS       |        127 |          0 |          8 |        135 |
| /Users/gregd/Desktop/Gregs Workspace/Work/TravelSoft/BusPassenger2021/BusPassenger1stApril/src/app/checkout-extras-payment/checkout-extras-payment.page.spec.ts      | TypeScript |         19 |          0 |          6 |         25 |
| /Users/gregd/Desktop/Gregs Workspace/Work/TravelSoft/BusPassenger2021/BusPassenger1stApril/src/app/checkout-extras-payment/checkout-extras-payment.page.ts           | TypeScript |        269 |          6 |         80 |        355 |
| /Users/gregd/Desktop/Gregs Workspace/Work/TravelSoft/BusPassenger2021/BusPassenger1stApril/src/app/checkout-summary/checkout-summary-routing.module.ts               | TypeScript |         14 |          0 |          4 |         18 |
| /Users/gregd/Desktop/Gregs Workspace/Work/TravelSoft/BusPassenger2021/BusPassenger1stApril/src/app/checkout-summary/checkout-summary.module.ts                       | TypeScript |         18 |          0 |          5 |         23 |
| /Users/gregd/Desktop/Gregs Workspace/Work/TravelSoft/BusPassenger2021/BusPassenger1stApril/src/app/checkout-summary/checkout-summary.page.html                       | HTML       |        110 |          0 |         14 |        124 |
| /Users/gregd/Desktop/Gregs Workspace/Work/TravelSoft/BusPassenger2021/BusPassenger1stApril/src/app/checkout-summary/checkout-summary.page.scss                       | SCSS       |        135 |          0 |          8 |        143 |
| /Users/gregd/Desktop/Gregs Workspace/Work/TravelSoft/BusPassenger2021/BusPassenger1stApril/src/app/checkout-summary/checkout-summary.page.spec.ts                    | TypeScript |         19 |          0 |          6 |         25 |
| /Users/gregd/Desktop/Gregs Workspace/Work/TravelSoft/BusPassenger2021/BusPassenger1stApril/src/app/checkout-summary/checkout-summary.page.ts                         | TypeScript |         18 |          0 |          4 |         22 |
| /Users/gregd/Desktop/Gregs Workspace/Work/TravelSoft/BusPassenger2021/BusPassenger1stApril/src/app/checkout/checkout-routing.module.ts                               | TypeScript |         14 |          0 |          4 |         18 |
| /Users/gregd/Desktop/Gregs Workspace/Work/TravelSoft/BusPassenger2021/BusPassenger1stApril/src/app/checkout/checkout.module.ts                                       | TypeScript |         18 |          0 |          5 |         23 |
| /Users/gregd/Desktop/Gregs Workspace/Work/TravelSoft/BusPassenger2021/BusPassenger1stApril/src/app/checkout/checkout.page.html                                       | HTML       |         49 |         12 |         12 |         73 |
| /Users/gregd/Desktop/Gregs Workspace/Work/TravelSoft/BusPassenger2021/BusPassenger1stApril/src/app/checkout/checkout.page.scss                                       | SCSS       |         91 |          0 |          7 |         98 |
| /Users/gregd/Desktop/Gregs Workspace/Work/TravelSoft/BusPassenger2021/BusPassenger1stApril/src/app/checkout/checkout.page.spec.ts                                    | TypeScript |         19 |          0 |          6 |         25 |
| /Users/gregd/Desktop/Gregs Workspace/Work/TravelSoft/BusPassenger2021/BusPassenger1stApril/src/app/checkout/checkout.page.ts                                         | TypeScript |         68 |          0 |         44 |        112 |
| /Users/gregd/Desktop/Gregs Workspace/Work/TravelSoft/BusPassenger2021/BusPassenger1stApril/src/app/forgot-password/forgot-password-routing.module.ts                 | TypeScript |         14 |          0 |          4 |         18 |
| /Users/gregd/Desktop/Gregs Workspace/Work/TravelSoft/BusPassenger2021/BusPassenger1stApril/src/app/forgot-password/forgot-password.module.ts                         | TypeScript |         16 |          0 |          5 |         21 |
| /Users/gregd/Desktop/Gregs Workspace/Work/TravelSoft/BusPassenger2021/BusPassenger1stApril/src/app/forgot-password/forgot-password.page.html                         | HTML       |          7 |          0 |          3 |         10 |
| /Users/gregd/Desktop/Gregs Workspace/Work/TravelSoft/BusPassenger2021/BusPassenger1stApril/src/app/forgot-password/forgot-password.page.scss                         | SCSS       |          0 |          0 |          1 |          1 |
| /Users/gregd/Desktop/Gregs Workspace/Work/TravelSoft/BusPassenger2021/BusPassenger1stApril/src/app/forgot-password/forgot-password.page.spec.ts                      | TypeScript |         19 |          0 |          6 |         25 |
| /Users/gregd/Desktop/Gregs Workspace/Work/TravelSoft/BusPassenger2021/BusPassenger1stApril/src/app/forgot-password/forgot-password.page.ts                           | TypeScript |         11 |          0 |          5 |         16 |
| /Users/gregd/Desktop/Gregs Workspace/Work/TravelSoft/BusPassenger2021/BusPassenger1stApril/src/app/home/home-routing.module.ts                                       | TypeScript |         14 |          0 |          3 |         17 |
| /Users/gregd/Desktop/Gregs Workspace/Work/TravelSoft/BusPassenger2021/BusPassenger1stApril/src/app/home/home.module.ts                                               | TypeScript |         18 |          0 |          4 |         22 |
| /Users/gregd/Desktop/Gregs Workspace/Work/TravelSoft/BusPassenger2021/BusPassenger1stApril/src/app/home/home.page.html                                               | HTML       |        124 |          1 |         22 |        147 |
| /Users/gregd/Desktop/Gregs Workspace/Work/TravelSoft/BusPassenger2021/BusPassenger1stApril/src/app/home/home.page.scss                                               | SCSS       |        135 |          0 |          6 |        141 |
| /Users/gregd/Desktop/Gregs Workspace/Work/TravelSoft/BusPassenger2021/BusPassenger1stApril/src/app/home/home.page.spec.ts                                            | TypeScript |         19 |          0 |          6 |         25 |
| /Users/gregd/Desktop/Gregs Workspace/Work/TravelSoft/BusPassenger2021/BusPassenger1stApril/src/app/home/home.page.ts                                                 | TypeScript |        156 |          0 |         23 |        179 |
| /Users/gregd/Desktop/Gregs Workspace/Work/TravelSoft/BusPassenger2021/BusPassenger1stApril/src/app/language-popover/language-popover-routing.module.ts               | TypeScript |         14 |          0 |          4 |         18 |
| /Users/gregd/Desktop/Gregs Workspace/Work/TravelSoft/BusPassenger2021/BusPassenger1stApril/src/app/language-popover/language-popover.module.ts                       | TypeScript |         16 |          0 |          5 |         21 |
| /Users/gregd/Desktop/Gregs Workspace/Work/TravelSoft/BusPassenger2021/BusPassenger1stApril/src/app/language-popover/language-popover.page.html                       | HTML       |          9 |          0 |          0 |          9 |
| /Users/gregd/Desktop/Gregs Workspace/Work/TravelSoft/BusPassenger2021/BusPassenger1stApril/src/app/language-popover/language-popover.page.scss                       | SCSS       |          0 |          0 |          1 |          1 |
| /Users/gregd/Desktop/Gregs Workspace/Work/TravelSoft/BusPassenger2021/BusPassenger1stApril/src/app/language-popover/language-popover.page.spec.ts                    | TypeScript |         19 |          0 |          6 |         25 |
| /Users/gregd/Desktop/Gregs Workspace/Work/TravelSoft/BusPassenger2021/BusPassenger1stApril/src/app/language-popover/language-popover.page.ts                         | TypeScript |         21 |          0 |          5 |         26 |
| /Users/gregd/Desktop/Gregs Workspace/Work/TravelSoft/BusPassenger2021/BusPassenger1stApril/src/app/language/language-routing.module.ts                               | TypeScript |         14 |          0 |          4 |         18 |
| /Users/gregd/Desktop/Gregs Workspace/Work/TravelSoft/BusPassenger2021/BusPassenger1stApril/src/app/language/language.module.ts                                       | TypeScript |         18 |          0 |          5 |         23 |
| /Users/gregd/Desktop/Gregs Workspace/Work/TravelSoft/BusPassenger2021/BusPassenger1stApril/src/app/language/language.page.html                                       | HTML       |         35 |          0 |          4 |         39 |
| /Users/gregd/Desktop/Gregs Workspace/Work/TravelSoft/BusPassenger2021/BusPassenger1stApril/src/app/language/language.page.scss                                       | SCSS       |         93 |          0 |          6 |         99 |
| /Users/gregd/Desktop/Gregs Workspace/Work/TravelSoft/BusPassenger2021/BusPassenger1stApril/src/app/language/language.page.spec.ts                                    | TypeScript |         19 |          0 |          6 |         25 |
| /Users/gregd/Desktop/Gregs Workspace/Work/TravelSoft/BusPassenger2021/BusPassenger1stApril/src/app/language/language.page.ts                                         | TypeScript |         30 |          0 |          3 |         33 |
| /Users/gregd/Desktop/Gregs Workspace/Work/TravelSoft/BusPassenger2021/BusPassenger1stApril/src/app/livechat/livechat-routing.module.ts                               | TypeScript |         14 |          0 |          4 |         18 |
| /Users/gregd/Desktop/Gregs Workspace/Work/TravelSoft/BusPassenger2021/BusPassenger1stApril/src/app/livechat/livechat.module.ts                                       | TypeScript |         16 |          0 |          5 |         21 |
| /Users/gregd/Desktop/Gregs Workspace/Work/TravelSoft/BusPassenger2021/BusPassenger1stApril/src/app/livechat/livechat.page.html                                       | HTML       |          7 |          0 |          3 |         10 |
| /Users/gregd/Desktop/Gregs Workspace/Work/TravelSoft/BusPassenger2021/BusPassenger1stApril/src/app/livechat/livechat.page.scss                                       | SCSS       |          0 |          0 |          1 |          1 |
| /Users/gregd/Desktop/Gregs Workspace/Work/TravelSoft/BusPassenger2021/BusPassenger1stApril/src/app/livechat/livechat.page.spec.ts                                    | TypeScript |         19 |          0 |          6 |         25 |
| /Users/gregd/Desktop/Gregs Workspace/Work/TravelSoft/BusPassenger2021/BusPassenger1stApril/src/app/livechat/livechat.page.ts                                         | TypeScript |         11 |          0 |          5 |         16 |
| /Users/gregd/Desktop/Gregs Workspace/Work/TravelSoft/BusPassenger2021/BusPassenger1stApril/src/app/login/login-routing.module.ts                                     | TypeScript |         14 |          0 |          4 |         18 |
| /Users/gregd/Desktop/Gregs Workspace/Work/TravelSoft/BusPassenger2021/BusPassenger1stApril/src/app/login/login.module.ts                                             | TypeScript |         18 |          0 |          5 |         23 |
| /Users/gregd/Desktop/Gregs Workspace/Work/TravelSoft/BusPassenger2021/BusPassenger1stApril/src/app/login/login.page.html                                             | HTML       |         25 |          0 |         10 |         35 |
| /Users/gregd/Desktop/Gregs Workspace/Work/TravelSoft/BusPassenger2021/BusPassenger1stApril/src/app/login/login.page.scss                                             | SCSS       |         64 |          0 |          5 |         69 |
| /Users/gregd/Desktop/Gregs Workspace/Work/TravelSoft/BusPassenger2021/BusPassenger1stApril/src/app/login/login.page.spec.ts                                          | TypeScript |         19 |          0 |          6 |         25 |
| /Users/gregd/Desktop/Gregs Workspace/Work/TravelSoft/BusPassenger2021/BusPassenger1stApril/src/app/login/login.page.ts                                               | TypeScript |         51 |          0 |         29 |         80 |
| /Users/gregd/Desktop/Gregs Workspace/Work/TravelSoft/BusPassenger2021/BusPassenger1stApril/src/app/main/main-routing.module.ts                                       | TypeScript |         14 |          0 |          4 |         18 |
| /Users/gregd/Desktop/Gregs Workspace/Work/TravelSoft/BusPassenger2021/BusPassenger1stApril/src/app/main/main.module.ts                                               | TypeScript |         18 |          0 |          5 |         23 |
| /Users/gregd/Desktop/Gregs Workspace/Work/TravelSoft/BusPassenger2021/BusPassenger1stApril/src/app/main/main.page.html                                               | HTML       |         25 |          0 |          6 |         31 |
| /Users/gregd/Desktop/Gregs Workspace/Work/TravelSoft/BusPassenger2021/BusPassenger1stApril/src/app/main/main.page.scss                                               | SCSS       |         42 |          0 |          1 |         43 |
| /Users/gregd/Desktop/Gregs Workspace/Work/TravelSoft/BusPassenger2021/BusPassenger1stApril/src/app/main/main.page.spec.ts                                            | TypeScript |         19 |          0 |          6 |         25 |
| /Users/gregd/Desktop/Gregs Workspace/Work/TravelSoft/BusPassenger2021/BusPassenger1stApril/src/app/main/main.page.ts                                                 | TypeScript |         27 |          0 |          7 |         34 |
| /Users/gregd/Desktop/Gregs Workspace/Work/TravelSoft/BusPassenger2021/BusPassenger1stApril/src/app/profile/profile-routing.module.ts                                 | TypeScript |         14 |          0 |          4 |         18 |
| /Users/gregd/Desktop/Gregs Workspace/Work/TravelSoft/BusPassenger2021/BusPassenger1stApril/src/app/profile/profile.module.ts                                         | TypeScript |         18 |          0 |          5 |         23 |
| /Users/gregd/Desktop/Gregs Workspace/Work/TravelSoft/BusPassenger2021/BusPassenger1stApril/src/app/profile/profile.page.html                                         | HTML       |         49 |          0 |         14 |         63 |
| /Users/gregd/Desktop/Gregs Workspace/Work/TravelSoft/BusPassenger2021/BusPassenger1stApril/src/app/profile/profile.page.scss                                         | SCSS       |         93 |          0 |          6 |         99 |
| /Users/gregd/Desktop/Gregs Workspace/Work/TravelSoft/BusPassenger2021/BusPassenger1stApril/src/app/profile/profile.page.spec.ts                                      | TypeScript |         19 |          0 |          6 |         25 |
| /Users/gregd/Desktop/Gregs Workspace/Work/TravelSoft/BusPassenger2021/BusPassenger1stApril/src/app/profile/profile.page.ts                                           | TypeScript |         21 |          0 |          6 |         27 |
| /Users/gregd/Desktop/Gregs Workspace/Work/TravelSoft/BusPassenger2021/BusPassenger1stApril/src/app/register/register-routing.module.ts                               | TypeScript |         14 |          0 |          4 |         18 |
| /Users/gregd/Desktop/Gregs Workspace/Work/TravelSoft/BusPassenger2021/BusPassenger1stApril/src/app/register/register.module.ts                                       | TypeScript |         18 |          0 |          5 |         23 |
| /Users/gregd/Desktop/Gregs Workspace/Work/TravelSoft/BusPassenger2021/BusPassenger1stApril/src/app/register/register.page.html                                       | HTML       |         32 |          0 |         13 |         45 |
| /Users/gregd/Desktop/Gregs Workspace/Work/TravelSoft/BusPassenger2021/BusPassenger1stApril/src/app/register/register.page.scss                                       | SCSS       |         69 |          0 |          5 |         74 |
| /Users/gregd/Desktop/Gregs Workspace/Work/TravelSoft/BusPassenger2021/BusPassenger1stApril/src/app/register/register.page.spec.ts                                    | TypeScript |         19 |          0 |          6 |         25 |
| /Users/gregd/Desktop/Gregs Workspace/Work/TravelSoft/BusPassenger2021/BusPassenger1stApril/src/app/register/register.page.ts                                         | TypeScript |         15 |          0 |          4 |         19 |
| /Users/gregd/Desktop/Gregs Workspace/Work/TravelSoft/BusPassenger2021/BusPassenger1stApril/src/app/routes/routes-routing.module.ts                                   | TypeScript |         14 |          0 |          4 |         18 |
| /Users/gregd/Desktop/Gregs Workspace/Work/TravelSoft/BusPassenger2021/BusPassenger1stApril/src/app/routes/routes.module.ts                                           | TypeScript |         18 |          0 |          5 |         23 |
| /Users/gregd/Desktop/Gregs Workspace/Work/TravelSoft/BusPassenger2021/BusPassenger1stApril/src/app/routes/routes.page.html                                           | HTML       |         60 |          0 |         13 |         73 |
| /Users/gregd/Desktop/Gregs Workspace/Work/TravelSoft/BusPassenger2021/BusPassenger1stApril/src/app/routes/routes.page.scss                                           | SCSS       |         51 |          0 |          1 |         52 |
| /Users/gregd/Desktop/Gregs Workspace/Work/TravelSoft/BusPassenger2021/BusPassenger1stApril/src/app/routes/routes.page.spec.ts                                        | TypeScript |         19 |          0 |          6 |         25 |
| /Users/gregd/Desktop/Gregs Workspace/Work/TravelSoft/BusPassenger2021/BusPassenger1stApril/src/app/routes/routes.page.ts                                             | TypeScript |        101 |          0 |         35 |        136 |
| /Users/gregd/Desktop/Gregs Workspace/Work/TravelSoft/BusPassenger2021/BusPassenger1stApril/src/app/service/language.service.spec.ts                                  | TypeScript |         12 |          0 |          5 |         17 |
| /Users/gregd/Desktop/Gregs Workspace/Work/TravelSoft/BusPassenger2021/BusPassenger1stApril/src/app/service/language.service.ts                                       | TypeScript |         33 |          0 |          8 |         41 |
| /Users/gregd/Desktop/Gregs Workspace/Work/TravelSoft/BusPassenger2021/BusPassenger1stApril/src/app/services/services-routing.module.ts                               | TypeScript |         14 |          0 |          4 |         18 |
| /Users/gregd/Desktop/Gregs Workspace/Work/TravelSoft/BusPassenger2021/BusPassenger1stApril/src/app/services/services.module.ts                                       | TypeScript |         18 |          0 |          5 |         23 |
| /Users/gregd/Desktop/Gregs Workspace/Work/TravelSoft/BusPassenger2021/BusPassenger1stApril/src/app/services/services.page.html                                       | HTML       |         41 |          0 |          4 |         45 |
| /Users/gregd/Desktop/Gregs Workspace/Work/TravelSoft/BusPassenger2021/BusPassenger1stApril/src/app/services/services.page.scss                                       | SCSS       |         48 |          0 |          0 |         48 |
| /Users/gregd/Desktop/Gregs Workspace/Work/TravelSoft/BusPassenger2021/BusPassenger1stApril/src/app/services/services.page.spec.ts                                    | TypeScript |         19 |          0 |          6 |         25 |
| /Users/gregd/Desktop/Gregs Workspace/Work/TravelSoft/BusPassenger2021/BusPassenger1stApril/src/app/services/services.page.ts                                         | TypeScript |         28 |          0 |          7 |         35 |
| /Users/gregd/Desktop/Gregs Workspace/Work/TravelSoft/BusPassenger2021/BusPassenger1stApril/src/app/settings/settings-routing.module.ts                               | TypeScript |         14 |          0 |          4 |         18 |
| /Users/gregd/Desktop/Gregs Workspace/Work/TravelSoft/BusPassenger2021/BusPassenger1stApril/src/app/settings/settings.module.ts                                       | TypeScript |         18 |          0 |          5 |         23 |
| /Users/gregd/Desktop/Gregs Workspace/Work/TravelSoft/BusPassenger2021/BusPassenger1stApril/src/app/settings/settings.page.html                                       | HTML       |         77 |          0 |          4 |         81 |
| /Users/gregd/Desktop/Gregs Workspace/Work/TravelSoft/BusPassenger2021/BusPassenger1stApril/src/app/settings/settings.page.scss                                       | SCSS       |         69 |          0 |          2 |         71 |
| /Users/gregd/Desktop/Gregs Workspace/Work/TravelSoft/BusPassenger2021/BusPassenger1stApril/src/app/settings/settings.page.spec.ts                                    | TypeScript |         19 |          0 |          6 |         25 |
| /Users/gregd/Desktop/Gregs Workspace/Work/TravelSoft/BusPassenger2021/BusPassenger1stApril/src/app/settings/settings.page.ts                                         | TypeScript |         51 |          0 |          6 |         57 |
| /Users/gregd/Desktop/Gregs Workspace/Work/TravelSoft/BusPassenger2021/BusPassenger1stApril/src/app/test/test-routing.module.ts                                       | TypeScript |         14 |          0 |          4 |         18 |
| /Users/gregd/Desktop/Gregs Workspace/Work/TravelSoft/BusPassenger2021/BusPassenger1stApril/src/app/test/test.module.ts                                               | TypeScript |         16 |          0 |          5 |         21 |
| /Users/gregd/Desktop/Gregs Workspace/Work/TravelSoft/BusPassenger2021/BusPassenger1stApril/src/app/test/test.page.html                                               | HTML       |         34 |         16 |         16 |         66 |
| /Users/gregd/Desktop/Gregs Workspace/Work/TravelSoft/BusPassenger2021/BusPassenger1stApril/src/app/test/test.page.scss                                               | SCSS       |          0 |          0 |          1 |          1 |
| /Users/gregd/Desktop/Gregs Workspace/Work/TravelSoft/BusPassenger2021/BusPassenger1stApril/src/app/test/test.page.spec.ts                                            | TypeScript |         19 |          0 |          6 |         25 |
| /Users/gregd/Desktop/Gregs Workspace/Work/TravelSoft/BusPassenger2021/BusPassenger1stApril/src/app/test/test.page.ts                                                 | TypeScript |        176 |         20 |         44 |        240 |
| /Users/gregd/Desktop/Gregs Workspace/Work/TravelSoft/BusPassenger2021/BusPassenger1stApril/src/app/tickets-mytickets/tickets-mytickets-routing.module.ts             | TypeScript |         14 |          0 |          4 |         18 |
| /Users/gregd/Desktop/Gregs Workspace/Work/TravelSoft/BusPassenger2021/BusPassenger1stApril/src/app/tickets-mytickets/tickets-mytickets.module.ts                     | TypeScript |         18 |          0 |          5 |         23 |
| /Users/gregd/Desktop/Gregs Workspace/Work/TravelSoft/BusPassenger2021/BusPassenger1stApril/src/app/tickets-mytickets/tickets-mytickets.page.html                     | HTML       |         87 |          0 |         12 |         99 |
| /Users/gregd/Desktop/Gregs Workspace/Work/TravelSoft/BusPassenger2021/BusPassenger1stApril/src/app/tickets-mytickets/tickets-mytickets.page.scss                     | SCSS       |         95 |          0 |          0 |         95 |
| /Users/gregd/Desktop/Gregs Workspace/Work/TravelSoft/BusPassenger2021/BusPassenger1stApril/src/app/tickets-mytickets/tickets-mytickets.page.spec.ts                  | TypeScript |         19 |          0 |          6 |         25 |
| /Users/gregd/Desktop/Gregs Workspace/Work/TravelSoft/BusPassenger2021/BusPassenger1stApril/src/app/tickets-mytickets/tickets-mytickets.page.ts                       | TypeScript |         34 |          0 |          9 |         43 |
| /Users/gregd/Desktop/Gregs Workspace/Work/TravelSoft/BusPassenger2021/BusPassenger1stApril/src/app/tickets-search/tickets-search-routing.module.ts                   | TypeScript |         14 |          0 |          4 |         18 |
| /Users/gregd/Desktop/Gregs Workspace/Work/TravelSoft/BusPassenger2021/BusPassenger1stApril/src/app/tickets-search/tickets-search.module.ts                           | TypeScript |         18 |          0 |          5 |         23 |
| /Users/gregd/Desktop/Gregs Workspace/Work/TravelSoft/BusPassenger2021/BusPassenger1stApril/src/app/tickets-search/tickets-search.page.html                           | HTML       |         97 |          0 |         10 |        107 |
| /Users/gregd/Desktop/Gregs Workspace/Work/TravelSoft/BusPassenger2021/BusPassenger1stApril/src/app/tickets-search/tickets-search.page.scss                           | SCSS       |        116 |          0 |         18 |        134 |
| /Users/gregd/Desktop/Gregs Workspace/Work/TravelSoft/BusPassenger2021/BusPassenger1stApril/src/app/tickets-search/tickets-search.page.spec.ts                        | TypeScript |         19 |          0 |          6 |         25 |
| /Users/gregd/Desktop/Gregs Workspace/Work/TravelSoft/BusPassenger2021/BusPassenger1stApril/src/app/tickets-search/tickets-search.page.ts                             | TypeScript |         53 |          0 |          4 |         57 |
| /Users/gregd/Desktop/Gregs Workspace/Work/TravelSoft/BusPassenger2021/BusPassenger1stApril/src/app/tickets/tickets-routing.module.ts                                 | TypeScript |         14 |          0 |          4 |         18 |
| /Users/gregd/Desktop/Gregs Workspace/Work/TravelSoft/BusPassenger2021/BusPassenger1stApril/src/app/tickets/tickets.module.ts                                         | TypeScript |         18 |          0 |          5 |         23 |
| /Users/gregd/Desktop/Gregs Workspace/Work/TravelSoft/BusPassenger2021/BusPassenger1stApril/src/app/tickets/tickets.page.html                                         | HTML       |         96 |          0 |         10 |        106 |
| /Users/gregd/Desktop/Gregs Workspace/Work/TravelSoft/BusPassenger2021/BusPassenger1stApril/src/app/tickets/tickets.page.scss                                         | SCSS       |         86 |          0 |          0 |         86 |
| /Users/gregd/Desktop/Gregs Workspace/Work/TravelSoft/BusPassenger2021/BusPassenger1stApril/src/app/tickets/tickets.page.spec.ts                                      | TypeScript |         19 |          0 |          6 |         25 |
| /Users/gregd/Desktop/Gregs Workspace/Work/TravelSoft/BusPassenger2021/BusPassenger1stApril/src/app/tickets/tickets.page.ts                                           | TypeScript |         27 |          0 |          5 |         32 |
| Total                                                                                                                                                                |            |      4,736 |         69 |        915 |      5,720 |
+----------------------------------------------------------------------------------------------------------------------------------------------------------------------+------------+------------+------------+------------+------------+